<svg width="11" height="12" viewBox="0 0 11 12" fill="none" xmlns="http://www.w3.org/2000/svg">
<path fill-rule="evenodd" clip-rule="evenodd" d="M9.00002 1.20001H9.60001C10.263 1.20001 10.8 1.737 10.8 2.39999V10.8C10.8 11.463 10.263 12 9.60001 12H1.20001C0.53699 12 0 11.463 0 10.8L0.00601877 2.40002C0.00601877 1.737 0.537018 1.20001 1.20001 1.20001H1.8V0H3.00001V1.20001H7.80001V0H9.00002V1.20001ZM1.20001 10.8H9.60001V4.19999H1.20001V10.8ZM7.48193 5.40067L8.11792 6.03666L4.55392 9.60066L2.64593 7.69266L3.28194 7.05667L4.55392 8.32868L7.48193 5.40067Z" fill="#5900AC"/>
</svg>
