<svg width="25" height="15" viewBox="0 0 25 15" fill="none" xmlns="http://www.w3.org/2000/svg">
<path d="M24.6147 7.69681C24.6147 11.6452 21.4256 14.8723 17.4392 14.8723C13.4907 14.8723 10.2637 11.6452 10.2637 7.69681C10.2637 3.74838 13.4528 0.521301 17.4012 0.521301C21.4256 0.521301 24.6147 3.74838 24.6147 7.69681Z" fill="#FFB600"/>
<path d="M17.4392 0.521301C21.3876 0.521301 24.6147 3.74838 24.6147 7.69681C24.6147 11.6452 21.4256 14.8723 17.4392 14.8723C13.4907 14.8723 10.2637 11.6452 10.2637 7.69681" fill="#F7981D"/>
<path d="M17.4399 0.521301C21.3884 0.521301 24.6155 3.74838 24.6155 7.69681C24.6155 11.6452 21.4263 14.8723 17.4399 14.8723" fill="#FF8500"/>
<path d="M7.79636 0.521851C3.88589 0.559816 0.696777 3.74893 0.696777 7.69736C0.696777 11.6458 3.88589 14.8729 7.87229 14.8729C9.7326 14.8729 11.4031 14.1515 12.6939 13.0126C12.9597 12.7848 13.1875 12.519 13.4153 12.2532H11.9346C11.7448 12.0254 11.555 11.7597 11.4031 11.5319H13.9468C14.0987 11.3041 14.2505 11.0383 14.3644 10.7726H10.9855C10.8716 10.5448 10.7577 10.279 10.6817 10.0133H14.6302C14.858 9.29192 15.0098 8.53261 15.0098 7.73533C15.0098 7.20381 14.9339 6.71025 14.858 6.2167H10.454C10.4919 5.95094 10.5678 5.72315 10.6438 5.45739H14.5922C14.5163 5.19163 14.4024 4.92587 14.2885 4.69807H10.9475C11.0614 4.43231 11.2133 4.20452 11.3651 3.93876H13.9088C13.757 3.673 13.5671 3.40724 13.3393 3.17945H11.9346C12.1624 2.91369 12.3902 2.68589 12.656 2.4581C11.4031 1.28116 9.69464 0.597782 7.83432 0.597782C7.83432 0.521851 7.83432 0.521851 7.79636 0.521851Z" fill="#FF5050"/>
<path d="M0.696777 7.6976C0.696777 11.646 3.88589 14.8731 7.87229 14.8731C9.7326 14.8731 11.4031 14.1518 12.6939 13.0128C12.9597 12.785 13.1875 12.5192 13.4153 12.2535H11.9346C11.7448 12.0257 11.555 11.7599 11.4031 11.5321H13.9468C14.0987 11.3043 14.2505 11.0386 14.3644 10.7728H10.9855C10.8716 10.545 10.7577 10.2793 10.6817 10.0135H14.6302C14.858 9.29216 15.0098 8.53285 15.0098 7.73557C15.0098 7.20405 14.9339 6.71049 14.858 6.21694H10.454C10.4919 5.95118 10.5678 5.72339 10.6438 5.45763H14.5922C14.5163 5.19187 14.4024 4.92611 14.2885 4.69831H10.9475C11.0614 4.43255 11.2133 4.20476 11.3651 3.939H13.9088C13.757 3.67324 13.5671 3.40748 13.3393 3.17969H11.9346C12.1624 2.91393 12.3902 2.68613 12.656 2.45834C11.4031 1.2814 9.69464 0.598022 7.83432 0.598022H7.79636" fill="#E52836"/>
<path d="M7.87232 14.8731C9.73263 14.8731 11.4031 14.1518 12.694 13.0128C12.9597 12.785 13.1875 12.5192 13.4153 12.2535H11.9346C11.7448 12.0257 11.555 11.7599 11.4031 11.5321H13.9468C14.0987 11.3043 14.2505 11.0386 14.3644 10.7728H10.9855C10.8716 10.545 10.7577 10.2793 10.6818 10.0135H14.6302C14.858 9.29216 15.0099 8.53285 15.0099 7.73557C15.0099 7.20405 14.9339 6.71049 14.858 6.21694H10.454C10.4919 5.95118 10.5679 5.72339 10.6438 5.45763H14.5922C14.5163 5.19187 14.4024 4.92611 14.2885 4.69831H10.9475C11.0614 4.43255 11.2133 4.20476 11.3652 3.939H13.9089C13.757 3.67324 13.5672 3.40748 13.3394 3.17969H11.9346C12.1624 2.91393 12.3902 2.68613 12.656 2.45834C11.4031 1.2814 9.69467 0.598022 7.83435 0.598022H7.79639" fill="#CB2026"/>
<path d="M10.4159 9.51993L10.5298 8.87452C10.4919 8.87452 10.4159 8.91248 10.34 8.91248C10.0743 8.91248 10.0363 8.76062 10.0743 8.68469L10.302 7.35589H10.7197L10.8336 6.63454H10.4539L10.5298 6.17896H9.77053C9.77053 6.17896 9.31494 8.68469 9.31494 8.98841C9.31494 9.444 9.5807 9.63383 9.92239 9.63383C10.1502 9.63383 10.34 9.5579 10.4159 9.51993Z" fill="white"/>
<path d="M10.6821 8.30431C10.6821 9.36735 11.4035 9.6331 12.0109 9.6331C12.5804 9.6331 12.8082 9.51921 12.8082 9.51921L12.9601 8.79786C12.9601 8.79786 12.5424 8.98769 12.1628 8.98769C11.3275 8.98769 11.4794 8.38024 11.4794 8.38024H13.036C13.036 8.38024 13.1499 7.88669 13.1499 7.69687C13.1499 7.20332 12.8841 6.59587 12.0489 6.59587C11.2516 6.51994 10.6821 7.35518 10.6821 8.30431ZM12.0109 7.20332C12.4285 7.20332 12.3526 7.69687 12.3526 7.73483H11.5174C11.5174 7.69687 11.5933 7.20332 12.0109 7.20332Z" fill="white"/>
<path d="M16.8323 9.51959L16.9841 8.68435C16.9841 8.68435 16.6045 8.87418 16.3387 8.87418C15.8072 8.87418 15.5794 8.45655 15.5794 8.00096C15.5794 7.08978 16.035 6.59623 16.5665 6.59623C16.9461 6.59623 17.2499 6.82402 17.2499 6.82402L17.3638 6.02674C17.3638 6.02674 16.9082 5.83691 16.4906 5.83691C15.6174 5.83691 14.7441 6.59623 14.7441 8.03893C14.7441 8.98807 15.1997 9.63349 16.1109 9.63349C16.4146 9.63349 16.8323 9.51959 16.8323 9.51959Z" fill="white"/>
<path d="M6.24005 6.51929C5.70854 6.51929 5.32888 6.67115 5.32888 6.67115L5.21498 7.31657C5.21498 7.31657 5.55667 7.16471 6.05023 7.16471C6.31599 7.16471 6.54378 7.20267 6.54378 7.43047C6.54378 7.58233 6.50581 7.6203 6.50581 7.6203C6.50581 7.6203 6.27802 7.6203 6.16412 7.6203C5.51871 7.6203 4.79736 7.88606 4.79736 8.75927C4.79736 9.44265 5.25295 9.59452 5.51871 9.59452C6.05023 9.59452 6.27802 9.25282 6.31599 9.25282L6.27802 9.55655H6.9614L7.26512 7.46843C7.26512 6.55725 6.50581 6.51929 6.24005 6.51929ZM6.39192 8.22775C6.39192 8.34165 6.31599 8.9491 5.8604 8.9491C5.63261 8.9491 5.55667 8.75927 5.55667 8.64537C5.55667 8.45554 5.67057 8.18978 6.24005 8.18978C6.35395 8.22775 6.39192 8.22775 6.39192 8.22775Z" fill="white"/>
<path d="M7.98649 9.59578C8.17632 9.59578 9.12546 9.63375 9.12546 8.60868C9.12546 7.65954 8.21429 7.84937 8.21429 7.46971C8.21429 7.27988 8.36615 7.20395 8.63191 7.20395C8.7458 7.20395 9.16343 7.24192 9.16343 7.24192L9.27732 6.55854C9.27732 6.55854 9.01156 6.4826 8.55598 6.4826C7.98649 6.4826 7.41701 6.7104 7.41701 7.46971C7.41701 8.34292 8.36615 8.26699 8.36615 8.60868C8.36615 8.83647 8.10039 8.87444 7.91056 8.87444C7.56887 8.87444 7.22718 8.76054 7.22718 8.76054L7.11328 9.44392C7.15125 9.51985 7.34108 9.59578 7.98649 9.59578Z" fill="white"/>
<path d="M23.1347 5.91364L22.9829 6.93871C22.9829 6.93871 22.6792 6.55905 22.2615 6.55905C21.5782 6.55905 20.9707 7.3943 20.9707 8.3814C20.9707 8.98885 21.2744 9.63427 21.9198 9.63427C22.3754 9.63427 22.6412 9.33054 22.6412 9.33054L22.6032 9.5963H23.3625L23.932 5.9516L23.1347 5.91364ZM22.7931 7.92581C22.7931 8.34344 22.6032 8.87496 22.1856 8.87496C21.9198 8.87496 21.768 8.64716 21.768 8.26751C21.768 7.66006 22.0337 7.2804 22.3754 7.2804C22.6412 7.2804 22.7931 7.47023 22.7931 7.92581Z" fill="white"/>
<path d="M2.10172 9.55834L2.55731 6.82481L2.63324 9.55834H3.16476L4.15186 6.82481L3.73424 9.55834H4.53152L5.13897 5.91364H3.8861L3.12679 8.15361L3.08883 5.91364H1.98782L1.38037 9.55834H2.10172Z" fill="white"/>
<path d="M13.8709 9.55738C14.0987 8.30452 14.1366 7.27945 14.6682 7.46928C14.7441 6.97572 14.858 6.7859 14.9339 6.59607C14.9339 6.59607 14.896 6.59607 14.7821 6.59607C14.4404 6.59607 14.1746 7.05165 14.1746 7.05165L14.2505 6.63403H13.5292L13.0356 9.59534H13.8709V9.55738Z" fill="white"/>
<path d="M18.5789 6.51929C18.0474 6.51929 17.6678 6.67115 17.6678 6.67115L17.5539 7.31657C17.5539 7.31657 17.8955 7.16471 18.3891 7.16471C18.6549 7.16471 18.8827 7.20267 18.8827 7.43047C18.8827 7.58233 18.8447 7.6203 18.8447 7.6203C18.8447 7.6203 18.6169 7.6203 18.503 7.6203C17.8576 7.6203 17.1362 7.88606 17.1362 8.75927C17.1362 9.44265 17.5918 9.59452 17.8576 9.59452C18.3891 9.59452 18.6169 9.25282 18.6549 9.25282L18.6169 9.55655H19.3003L19.604 7.46843C19.642 6.55725 18.8447 6.51929 18.5789 6.51929ZM18.7688 8.22775C18.7688 8.34165 18.6928 8.9491 18.2372 8.9491C18.0094 8.9491 17.9335 8.75927 17.9335 8.64537C17.9335 8.45554 18.0474 8.18978 18.6169 8.18978C18.7308 8.22775 18.7308 8.22775 18.7688 8.22775Z" fill="white"/>
<path d="M20.2493 9.55738C20.4771 8.30452 20.5151 7.27945 21.0466 7.46928C21.1225 6.97572 21.2364 6.7859 21.3123 6.59607C21.3123 6.59607 21.2744 6.59607 21.1605 6.59607C20.8188 6.59607 20.553 7.05165 20.553 7.05165L20.629 6.63403H19.9076L19.4141 9.59534H20.2493V9.55738Z" fill="white"/>
<path d="M9.23926 8.98841C9.23926 9.444 9.50502 9.63383 9.84671 9.63383C10.1125 9.63383 10.3403 9.5579 10.4162 9.51993L10.5301 8.87452C10.4921 8.87452 10.4162 8.91248 10.3403 8.91248C10.0745 8.91248 10.0365 8.76062 10.0745 8.68469L10.3023 7.35589H10.7199L10.8338 6.63454H10.4542L10.5301 6.17896" fill="#DCE5E5"/>
<path d="M11.0615 8.30431C11.0615 9.36735 11.4032 9.6331 12.0107 9.6331C12.5802 9.6331 12.8079 9.51921 12.8079 9.51921L12.9598 8.79786C12.9598 8.79786 12.5422 8.98769 12.1625 8.98769C11.3273 8.98769 11.4791 8.38024 11.4791 8.38024H13.0357C13.0357 8.38024 13.1496 7.88669 13.1496 7.69687C13.1496 7.20332 12.8839 6.59587 12.0486 6.59587C11.2514 6.51994 11.0615 7.35518 11.0615 8.30431ZM12.0107 7.20332C12.4283 7.20332 12.5042 7.69687 12.5042 7.73483H11.5171C11.5171 7.69687 11.593 7.20332 12.0107 7.20332Z" fill="#DCE5E5"/>
<path d="M16.8325 9.51959L16.9843 8.68435C16.9843 8.68435 16.6047 8.87418 16.3389 8.87418C15.8074 8.87418 15.5796 8.45655 15.5796 8.00096C15.5796 7.08978 16.0352 6.59623 16.5667 6.59623C16.9464 6.59623 17.2501 6.82402 17.2501 6.82402L17.364 6.02674C17.364 6.02674 16.9084 5.83691 16.4908 5.83691C15.6176 5.83691 15.124 6.59623 15.124 8.03893C15.124 8.98807 15.2 9.63349 16.1111 9.63349C16.4149 9.63349 16.8325 9.51959 16.8325 9.51959Z" fill="#DCE5E5"/>
<path d="M5.21498 7.35539C5.21498 7.35539 5.55667 7.20352 6.05023 7.20352C6.31599 7.20352 6.54378 7.24149 6.54378 7.46928C6.54378 7.62115 6.50581 7.65911 6.50581 7.65911C6.50581 7.65911 6.27802 7.65911 6.16412 7.65911C5.51871 7.65911 4.79736 7.92487 4.79736 8.79809C4.79736 9.48147 5.25295 9.63333 5.51871 9.63333C6.05023 9.63333 6.27802 9.29164 6.31599 9.29164L6.27802 9.59537H6.9614L7.26512 7.50725C7.26512 6.63404 6.50581 6.59607 6.20209 6.59607L5.21498 7.35539ZM6.77157 8.2286C6.77157 8.3425 6.31599 8.94995 5.8604 8.94995C5.63261 8.94995 5.55667 8.76012 5.55667 8.64622C5.55667 8.45639 5.67057 8.19063 6.24005 8.19063C6.35395 8.2286 6.77157 8.2286 6.77157 8.2286Z" fill="#DCE5E5"/>
<path d="M7.15088 9.51985C7.15088 9.51985 7.37867 9.59578 8.02409 9.59578C8.21392 9.59578 9.16306 9.63375 9.16306 8.60868C9.16306 7.65954 8.25188 7.84937 8.25188 7.46971C8.25188 7.27988 8.40375 7.20395 8.66951 7.20395C8.7834 7.20395 9.20102 7.24192 9.20102 7.24192L9.31492 6.55854C9.31492 6.55854 9.04916 6.4826 8.59357 6.4826C8.02409 6.4826 7.83426 6.7104 7.83426 7.46971C7.83426 8.34292 8.40375 8.26699 8.40375 8.60868C8.40375 8.83647 8.13799 8.87444 7.94816 8.87444" fill="#DCE5E5"/>
<path d="M22.9824 6.93749C22.9824 6.93749 22.6787 6.55783 22.2611 6.55783C21.5777 6.55783 21.3499 7.39308 21.3499 8.38019C21.3499 8.98764 21.274 9.63306 21.9194 9.63306C22.375 9.63306 22.6408 9.32933 22.6408 9.32933L22.6028 9.59509H23.3621L23.9316 5.95038L22.9824 6.93749ZM22.9445 7.9246C22.9445 8.34222 22.6028 8.87374 22.1852 8.87374C21.9194 8.87374 21.7675 8.64595 21.7675 8.26629C21.7675 7.65884 22.0333 7.27918 22.375 7.27918C22.6408 7.27918 22.9445 7.46901 22.9445 7.9246Z" fill="#DCE5E5"/>
<path d="M2.10172 9.55834L2.55731 6.82481L2.63324 9.55834H3.16476L4.15186 6.82481L3.73424 9.55834H4.53152L5.13897 5.91364H4.18983L3.12679 8.15361L3.08883 5.91364H2.6712L1.38037 9.55834H2.10172Z" fill="#DCE5E5"/>
<path d="M13.0737 9.55738H13.871C14.0988 8.30452 14.1368 7.27945 14.6683 7.46928C14.7442 6.97572 14.8581 6.7859 14.934 6.59607C14.934 6.59607 14.8961 6.59607 14.7822 6.59607C14.4405 6.59607 14.1747 7.05165 14.1747 7.05165L14.2507 6.63403" fill="#DCE5E5"/>
<path d="M17.5539 7.35539C17.5539 7.35539 17.8955 7.20352 18.3891 7.20352C18.6549 7.20352 18.8827 7.24149 18.8827 7.46928C18.8827 7.62115 18.8447 7.65911 18.8447 7.65911C18.8447 7.65911 18.6169 7.65911 18.503 7.65911C17.8576 7.65911 17.1362 7.92487 17.1362 8.79809C17.1362 9.48147 17.5918 9.63333 17.8576 9.63333C18.3891 9.63333 18.6169 9.29164 18.6549 9.29164L18.6169 9.59537H19.3003L19.604 7.50725C19.604 6.63404 18.8447 6.59607 18.541 6.59607L17.5539 7.35539ZM19.1104 8.2286C19.1104 8.3425 18.6549 8.94995 18.1993 8.94995C17.9715 8.94995 17.8955 8.76012 17.8955 8.64622C17.8955 8.45639 18.0094 8.19063 18.5789 8.19063C18.7308 8.2286 19.1104 8.2286 19.1104 8.2286Z" fill="#DCE5E5"/>
<path d="M19.4521 9.55738H20.2494C20.4772 8.30452 20.5152 7.27945 21.0467 7.46928C21.1226 6.97572 21.2365 6.7859 21.3125 6.59607C21.3125 6.59607 21.2745 6.59607 21.1606 6.59607C20.8189 6.59607 20.5532 7.05165 20.5532 7.05165L20.6291 6.63403" fill="#DCE5E5"/>
</svg>
