<svg width="28" height="21" viewBox="0 0 28 21" fill="none" xmlns="http://www.w3.org/2000/svg">
<path d="M21.696 20.672C19.344 20.672 17.64 19.832 16.584 18.152C16.104 17.432 15.72 16.544 15.432 15.488C15.144 14.432 15 13.328 15 12.176C15 9.68 15.624 7.424 16.872 5.408C18.168 3.392 20.064 1.808 22.56 0.655996L23.208 1.952C21.816 2.528 20.592 3.416 19.536 4.616C18.528 5.816 17.928 7.04 17.736 8.288C17.592 8.864 17.52 9.416 17.52 9.944C17.52 10.424 17.592 10.88 17.736 11.312C18.792 10.16 20.184 9.584 21.912 9.584C23.592 9.584 24.96 10.088 26.016 11.096C27.072 12.056 27.6 13.4 27.6 15.128C27.6 16.76 27.048 18.104 25.944 19.16C24.84 20.168 23.424 20.672 21.696 20.672ZM6.864 20.672C4.512 20.672 2.808 19.832 1.752 18.152C1.272 17.432 0.888 16.544 0.6 15.488C0.312 14.432 0.168 13.328 0.168 12.176C0.168 9.68 0.792 7.424 2.04 5.408C3.336 3.392 5.232 1.808 7.728 0.655996L8.376 1.952C6.984 2.528 5.76 3.416 4.704 4.616C3.696 5.816 3.096 7.04 2.904 8.288C2.76 8.864 2.688 9.416 2.688 9.944C2.688 10.424 2.76 10.88 2.904 11.312C3.96 10.16 5.352 9.584 7.08 9.584C8.76 9.584 10.128 10.088 11.184 11.096C12.24 12.056 12.768 13.4 12.768 15.128C12.768 16.76 12.216 18.104 11.112 19.16C10.008 20.168 8.592 20.672 6.864 20.672Z" fill="#8937D7" fill-opacity="0.38"/>
</svg>
