<svg width="20" height="20" viewBox="0 0 20 20" fill="none" xmlns="http://www.w3.org/2000/svg">
<path d="M17.0711 2.92891C15.1823 1.0402 12.6711 0 10 0C7.32887 0 4.81762 1.0402 2.92891 2.92891C1.04016 4.81766 0 7.32891 0 10C0 12.6711 1.04016 15.1823 2.92891 17.0711C4.81766 18.9598 7.32887 20 10 20C12.6711 20 15.1823 18.9598 17.0711 17.0711C18.9598 15.1823 20 12.6711 20 10C20 7.32891 18.9598 4.8177 17.0711 2.92891Z" fill="#5900AC"/>
<path d="M14.777 6.79265C14.5482 6.5639 14.1772 6.5639 13.9484 6.79269L8.77425 11.9669L6.05055 9.24315C5.82176 9.01437 5.45074 9.01437 5.22191 9.24315C4.99309 9.47194 4.99309 9.84296 5.22191 10.0718L8.35992 13.2098C8.47433 13.3242 8.62429 13.3814 8.77421 13.3814C8.92413 13.3814 9.07413 13.3242 9.18851 13.2098L14.777 7.62128C15.0058 7.39249 15.0058 7.02148 14.777 6.79265Z" fill="#F7F8FC"/>
</svg>
