<svg width="16" height="14" viewBox="0 0 16 14" fill="none" xmlns="http://www.w3.org/2000/svg">
<path fill-rule="evenodd" clip-rule="evenodd" d="M10.7313 3.69164H12.0699L10.0855 0.287027C9.92557 0.0111467 9.57132 -0.0829035 9.29544 0.0801168C9.01956 0.240002 8.92551 0.594258 9.08853 0.870138L10.7313 3.69164ZM6.18842 0.870454C6.34831 0.594574 6.25739 0.240318 5.98151 0.0804326C5.70563 -0.0794528 5.35138 0.0114624 5.19149 0.287343L3.20703 3.6951H4.54568L6.18842 0.870454ZM0.981257 4.73236H14.2862C14.8286 4.73236 15.2675 5.17126 15.2706 5.71048V6.79833C15.2706 7.34069 14.8317 7.77959 14.2894 7.77959H13.7909L12.8379 12.9147C12.7187 13.5198 12.167 13.9994 11.5933 13.9994H11.2171H8.74667H7.83752H7.53656H7.2356H6.32644H3.85606H3.47986C2.90615 13.9994 2.35439 13.5198 2.23526 12.9147L1.28849 7.78272H0.981257C0.438901 7.78272 0 7.34382 0 6.80147V5.71362C0 5.17126 0.438901 4.73236 0.981257 4.73236ZM5.41729 12.0745V9.86123V8.97089C5.41729 8.67307 5.17903 8.416 4.8624 8.416C4.56457 8.416 4.3075 8.65426 4.3075 8.97089V11.1466V12.0745C4.3075 12.3724 4.54576 12.6294 4.8624 12.6294C5.16022 12.6294 5.41729 12.3912 5.41729 12.0745ZM7.19798 12.0745V9.86123V8.97089C7.19798 8.67307 6.9409 8.416 6.64308 8.416C6.34525 8.416 6.08818 8.65426 6.08818 8.97089V11.1466V12.0745C6.08818 12.3724 6.32644 12.6294 6.64308 12.6294C6.9409 12.6294 7.19798 12.3912 7.19798 12.0745ZM8.98806 12.0745V11.1466V8.97089C8.98806 8.65426 8.73099 8.416 8.43317 8.416C8.13534 8.416 7.87827 8.67307 7.87827 8.97089V9.86123V12.0745C7.87827 12.3912 8.13534 12.6294 8.43317 12.6294C8.7498 12.6294 8.98806 12.3724 8.98806 12.0745ZM10.7687 12.0745V11.1466V8.97089C10.7687 8.65426 10.5117 8.416 10.2139 8.416C9.89721 8.416 9.65896 8.67307 9.65896 8.97089V9.86123V12.0745C9.65896 12.3912 9.91603 12.6294 10.2139 12.6294C10.5305 12.6294 10.7687 12.3724 10.7687 12.0745Z" fill="#5900AC"/>
</svg>
